690.945546  688.371480  688.630544  
338.427026  338.841283  338.422721  
228.373964  228.080260  228.476176  
172.889513  173.501258  175.758120  
139.413212  139.671767  139.518538  
117.627784  117.880932  117.651434  
105.372585  103.826400  104.688657  
92.832239  92.816416  91.584216  
82.901869  82.185605  82.634076  
74.127814  73.658254  73.705821  
67.966571  68.310617  67.875061  
62.754835  62.470351  62.578524  

