slurmstepd-west1: error: *** STEP 75288.2 ON west1 CANCELLED AT 2020-01-14T04:18:07 DUE TO TIME LIMIT ***
slurmstepd-west1: error: *** JOB 75288 ON west1 CANCELLED AT 2020-01-14T04:18:07 DUE TO TIME LIMIT ***
srun: Job step aborted: Waiting up to 32 seconds for job step to finish.
[proxy:0:1@west2] HYD_pmcd_pmip_control_cmd_cb (pm/pmiserv/pmip_cb.c:878): assert (!closed) failed
[proxy:0:1@west2] HYDT_dmxu_poll_wait_for_event (tools/demux/demux_poll.c:77): callback returned error status
[proxy:0:1@west2] main (pm/pmiserv/pmip.c:200): demux engine error waiting for event
[proxy:0:5@west6] HYD_pmcd_pmip_control_cmd_cb (pm/pmiserv/pmip_cb.c:878): assert (!closed) failed
[proxy:0:5@west6] HYDT_dmxu_poll_wait_for_event (tools/demux/demux_poll.c:77): callback returned error status
[proxy:0:5@west6] main (pm/pmiserv/pmip.c:200): demux engine error waiting for event
[proxy:0:2@west3] HYD_pmcd_pmip_control_cmd_cb (pm/pmiserv/pmip_cb.c:878): assert (!closed) failed
[proxy:0:2@west3] HYDT_dmxu_poll_wait_for_event (tools/demux/demux_poll.c:77): callback returned error status
[proxy:0:2@west3] main (pm/pmiserv/pmip.c:200): demux engine error waiting for event
[proxy:0:6@west7] HYD_pmcd_pmip_control_cmd_cb (pm/pmiserv/pmip_cb.c:878): assert (!closed) failed
[proxy:0:6@west7] HYDT_dmxu_poll_wait_for_event (tools/demux/demux_poll.c:77): callback returned error status
[proxy:0:6@west7] main (pm/pmiserv/pmip.c:200): demux engine error waiting for event
[proxy:0:8@west9] HYD_pmcd_pmip_control_cmd_cb (pm/pmiserv/pmip_cb.c:878): assert (!closed) failed
[proxy:0:8@west9] HYDT_dmxu_poll_wait_for_event (tools/demux/demux_poll.c:77): callback returned error status
[proxy:0:8@west9] main (pm/pmiserv/pmip.c:200): demux engine error waiting for event
[proxy:0:7@west8] HYD_pmcd_pmip_control_cmd_cb (pm/pmiserv/pmip_cb.c:878): assert (!closed) failed
[proxy:0:7@west8] HYDT_dmxu_poll_wait_for_event (tools/demux/demux_poll.c:77): callback returned error status
[proxy:0:7@west8] main (pm/pmiserv/pmip.c:200): demux engine error waiting for event
[proxy:0:9@west10] HYD_pmcd_pmip_control_cmd_cb (pm/pmiserv/pmip_cb.c:878): assert (!closed) failed
[proxy:0:9@west10] HYDT_dmxu_poll_wait_for_event (tools/demux/demux_poll.c:77): callback returned error status
[proxy:0:9@west10] main (pm/pmiserv/pmip.c:200): demux engine error waiting for event
srun: got SIGCONT
srun: error: west10: task 9: Exited with exit code 7
srun: error: west6: task 5: Exited with exit code 7
srun: error: west8: task 7: Exited with exit code 7
srun: error: west1: task 0: Exited with exit code 7
srun: error: west9: task 8: Exited with exit code 7
srun: error: west3: task 2: Exited with exit code 7
srun: error: west2: task 1: Exited with exit code 7
srun: error: west7: task 6: Exited with exit code 7
[mpiexec@west1] HYDU_sock_write (utils/sock/sock.c:289): write error (Bad file descriptor)
[mpiexec@west1] HYD_pmcd_pmiserv_send_signal (pm/pmiserv/pmiserv_cb.c:178): unable to write data to proxy
[mpiexec@west1] ui_cmd_cb (pm/pmiserv/pmiserv_pmci.c:77): unable to send signal downstream
[mpiexec@west1] HYDT_dmxu_poll_wait_for_event (tools/demux/demux_poll.c:77): callback returned error status
[mpiexec@west1] HYDT_bscu_wait_for_completion (tools/bootstrap/utils/bscu_wait.c:60): error waiting for event
[mpiexec@west1] HYDT_bsci_wait_for_completion (tools/bootstrap/src/bsci_wait.c:22): launcher returned error waiting for completion
[mpiexec@west1] HYD_pmci_wait_for_completion (pm/pmiserv/pmiserv_pmci.c:215): launcher returned error waiting for completion
[mpiexec@west1] main (ui/mpich/mpiexec.c:336): process manager error waiting for completion
