[proxy:0:1@west10] HYD_pmcd_pmip_control_cmd_cb (pm/pmiserv/pmip_cb.c:878): assert (!closed) failed
[proxy:0:1@west10] HYDT_dmxu_poll_wait_for_event (tools/demux/demux_poll.c:77): callback returned error status
[proxy:0:1@west10] main (pm/pmiserv/pmip.c:200): demux engine error waiting for event
srun: error: west10: task 1: Exited with exit code 7
[mpiexec@west9] HYDT_bscu_wait_for_completion (tools/bootstrap/utils/bscu_wait.c:74): one of the processes terminated badly; aborting
[mpiexec@west9] HYDT_bsci_wait_for_completion (tools/bootstrap/src/bsci_wait.c:22): launcher returned error waiting for completion
[mpiexec@west9] HYD_pmci_wait_for_completion (pm/pmiserv/pmiserv_pmci.c:215): launcher returned error waiting for completion
[mpiexec@west9] main (ui/mpich/mpiexec.c:336): process manager error waiting for completion
[proxy:0:0@west9] HYD_pmcd_pmip_control_cmd_cb (pm/pmiserv/pmip_cb.c:878): assert (!closed) failed
[proxy:0:0@west9] HYDT_dmxu_poll_wait_for_event (tools/demux/demux_poll.c:77): callback returned error status
[proxy:0:0@west9] main (pm/pmiserv/pmip.c:200): demux engine error waiting for event
srun: error: west9: task 0: Exited with exit code 7
[mpiexec@west9] HYDT_bscu_wait_for_completion (tools/bootstrap/utils/bscu_wait.c:74): one of the processes terminated badly; aborting
[mpiexec@west9] HYDT_bsci_wait_for_completion (tools/bootstrap/src/bsci_wait.c:22): launcher returned error waiting for completion
[mpiexec@west9] HYD_pmci_wait_for_completion (pm/pmiserv/pmiserv_pmci.c:215): launcher returned error waiting for completion
[mpiexec@west9] main (ui/mpich/mpiexec.c:336): process manager error waiting for completion
[proxy:0:1@west10] HYD_pmcd_pmip_control_cmd_cb (pm/pmiserv/pmip_cb.c:878): assert (!closed) failed
[proxy:0:1@west10] HYDT_dmxu_poll_wait_for_event (tools/demux/demux_poll.c:77): callback returned error status
[proxy:0:1@west10] main (pm/pmiserv/pmip.c:200): demux engine error waiting for event
srun: error: west10: task 1: Exited with exit code 7
[mpiexec@west9] HYDT_bscu_wait_for_completion (tools/bootstrap/utils/bscu_wait.c:74): one of the processes terminated badly; aborting
[mpiexec@west9] HYDT_bsci_wait_for_completion (tools/bootstrap/src/bsci_wait.c:22): launcher returned error waiting for completion
[mpiexec@west9] HYD_pmci_wait_for_completion (pm/pmiserv/pmiserv_pmci.c:215): launcher returned error waiting for completion
[mpiexec@west9] main (ui/mpich/mpiexec.c:336): process manager error waiting for completion
