srun: Job step aborted: Waiting up to 32 seconds for job step to finish.
slurmstepd-west1: error: *** STEP 75317.1 ON west1 CANCELLED AT 2020-01-13T21:51:37 DUE TO TIME LIMIT ***
slurmstepd-west1: error: *** JOB 75317 ON west1 CANCELLED AT 2020-01-13T21:51:37 DUE TO TIME LIMIT ***
srun: got SIGCONT
srun: forcing job termination
