529.89 529.93 529.88 
265.25 265.29 265.30
178.84 177.85 178.00
133.65 133.57 133.72
106.81 107.64 106.83
88.95  88.98  89.09
76.38  77.00  76.26
67.018 67.54  67.07
59.69  59.58  59.49
53.78  53.76  53.70
49.09  50.25  49.03
45.74  46.61  46.04