<?xml version="1.0" encoding="utf-8"  standalone="no"?>
<svg 
 width="600" height="480"
 viewBox="0 0 600 480"
 xmlns="http://www.w3.org/2000/svg"
 xmlns:xlink="http://www.w3.org/1999/xlink"
>

<title>Gnuplot</title>
<desc>Produced by GNUPLOT 5.2 patchlevel 7 </desc>

<g id="gnuplot_canvas">

<rect x="0" y="0" width="600" height="480" fill="none"/>
<defs>

	<circle id='gpDot' r='0.5' stroke-width='0.5' stroke='currentColor'/>
	<path id='gpPt0' stroke-width='0.222' stroke='currentColor' d='M-1,0 h2 M0,-1 v2'/>
	<path id='gpPt1' stroke-width='0.222' stroke='currentColor' d='M-1,-1 L1,1 M1,-1 L-1,1'/>
	<path id='gpPt2' stroke-width='0.222' stroke='currentColor' d='M-1,0 L1,0 M0,-1 L0,1 M-1,-1 L1,1 M-1,1 L1,-1'/>
	<rect id='gpPt3' stroke-width='0.222' stroke='currentColor' x='-1' y='-1' width='2' height='2'/>
	<rect id='gpPt4' stroke-width='0.222' stroke='currentColor' fill='currentColor' x='-1' y='-1' width='2' height='2'/>
	<circle id='gpPt5' stroke-width='0.222' stroke='currentColor' cx='0' cy='0' r='1'/>
	<use xlink:href='#gpPt5' id='gpPt6' fill='currentColor' stroke='none'/>
	<path id='gpPt7' stroke-width='0.222' stroke='currentColor' d='M0,-1.33 L-1.33,0.67 L1.33,0.67 z'/>
	<use xlink:href='#gpPt7' id='gpPt8' fill='currentColor' stroke='none'/>
	<use xlink:href='#gpPt7' id='gpPt9' stroke='currentColor' transform='rotate(180)'/>
	<use xlink:href='#gpPt9' id='gpPt10' fill='currentColor' stroke='none'/>
	<use xlink:href='#gpPt3' id='gpPt11' stroke='currentColor' transform='rotate(45)'/>
	<use xlink:href='#gpPt11' id='gpPt12' fill='currentColor' stroke='none'/>
	<path id='gpPt13' stroke-width='0.222' stroke='currentColor' d='M0,1.330 L1.265,0.411 L0.782,-1.067 L-0.782,-1.076 L-1.265,0.411 z'/>
	<use xlink:href='#gpPt13' id='gpPt14' fill='currentColor' stroke='none'/>
	<filter id='textbox' filterUnits='objectBoundingBox' x='0' y='0' height='1' width='1'>
	  <feFlood flood-color='white' flood-opacity='1' result='bgnd'/>
	  <feComposite in='SourceGraphic' in2='bgnd' operator='atop'/>
	</filter>
	<filter id='greybox' filterUnits='objectBoundingBox' x='0' y='0' height='1' width='1'>
	  <feFlood flood-color='lightgrey' flood-opacity='1' result='grey'/>
	  <feComposite in='SourceGraphic' in2='grey' operator='atop'/>
	</filter>
</defs>
<g fill="none" color="white" stroke="currentColor" stroke-width="1.00" stroke-linecap="butt" stroke-linejoin="miter">
</g>
<g fill="none" color="black" stroke="currentColor" stroke-width="1.00" stroke-linecap="butt" stroke-linejoin="miter">
	<path stroke='black'  d='M63.6,422.4 L72.6,422.4 M575.0,422.4 L566.0,422.4  '/>	<g transform="translate(55.3,426.3)" stroke="none" fill="black" font-family="Arial" font-size="12.00"  text-anchor="end">
		<text><tspan font-family="Arial" > 1</tspan></text>
	</g>
</g>
<g fill="none" color="black" stroke="currentColor" stroke-width="1.00" stroke-linecap="butt" stroke-linejoin="miter">
	<path stroke='black'  d='M63.6,385.6 L72.6,385.6 M575.0,385.6 L566.0,385.6  '/>	<g transform="translate(55.3,389.5)" stroke="none" fill="black" font-family="Arial" font-size="12.00"  text-anchor="end">
		<text><tspan font-family="Arial" > 2</tspan></text>
	</g>
</g>
<g fill="none" color="black" stroke="currentColor" stroke-width="1.00" stroke-linecap="butt" stroke-linejoin="miter">
	<path stroke='black'  d='M63.6,348.9 L72.6,348.9 M575.0,348.9 L566.0,348.9  '/>	<g transform="translate(55.3,352.8)" stroke="none" fill="black" font-family="Arial" font-size="12.00"  text-anchor="end">
		<text><tspan font-family="Arial" > 3</tspan></text>
	</g>
</g>
<g fill="none" color="black" stroke="currentColor" stroke-width="1.00" stroke-linecap="butt" stroke-linejoin="miter">
	<path stroke='black'  d='M63.6,312.1 L72.6,312.1 M575.0,312.1 L566.0,312.1  '/>	<g transform="translate(55.3,316.0)" stroke="none" fill="black" font-family="Arial" font-size="12.00"  text-anchor="end">
		<text><tspan font-family="Arial" > 4</tspan></text>
	</g>
</g>
<g fill="none" color="black" stroke="currentColor" stroke-width="1.00" stroke-linecap="butt" stroke-linejoin="miter">
	<path stroke='black'  d='M63.6,275.4 L72.6,275.4 M575.0,275.4 L566.0,275.4  '/>	<g transform="translate(55.3,279.3)" stroke="none" fill="black" font-family="Arial" font-size="12.00"  text-anchor="end">
		<text><tspan font-family="Arial" > 5</tspan></text>
	</g>
</g>
<g fill="none" color="black" stroke="currentColor" stroke-width="1.00" stroke-linecap="butt" stroke-linejoin="miter">
	<path stroke='black'  d='M63.6,238.6 L72.6,238.6 M575.0,238.6 L566.0,238.6  '/>	<g transform="translate(55.3,242.5)" stroke="none" fill="black" font-family="Arial" font-size="12.00"  text-anchor="end">
		<text><tspan font-family="Arial" > 6</tspan></text>
	</g>
</g>
<g fill="none" color="black" stroke="currentColor" stroke-width="1.00" stroke-linecap="butt" stroke-linejoin="miter">
	<path stroke='black'  d='M63.6,201.9 L72.6,201.9 M575.0,201.9 L566.0,201.9  '/>	<g transform="translate(55.3,205.8)" stroke="none" fill="black" font-family="Arial" font-size="12.00"  text-anchor="end">
		<text><tspan font-family="Arial" > 7</tspan></text>
	</g>
</g>
<g fill="none" color="black" stroke="currentColor" stroke-width="1.00" stroke-linecap="butt" stroke-linejoin="miter">
	<path stroke='black'  d='M63.6,165.1 L72.6,165.1 M575.0,165.1 L566.0,165.1  '/>	<g transform="translate(55.3,169.0)" stroke="none" fill="black" font-family="Arial" font-size="12.00"  text-anchor="end">
		<text><tspan font-family="Arial" > 8</tspan></text>
	</g>
</g>
<g fill="none" color="black" stroke="currentColor" stroke-width="1.00" stroke-linecap="butt" stroke-linejoin="miter">
	<path stroke='black'  d='M63.6,128.4 L72.6,128.4 M575.0,128.4 L566.0,128.4  '/>	<g transform="translate(55.3,132.3)" stroke="none" fill="black" font-family="Arial" font-size="12.00"  text-anchor="end">
		<text><tspan font-family="Arial" > 9</tspan></text>
	</g>
</g>
<g fill="none" color="black" stroke="currentColor" stroke-width="1.00" stroke-linecap="butt" stroke-linejoin="miter">
	<path stroke='black'  d='M63.6,91.6 L72.6,91.6 M575.0,91.6 L566.0,91.6  '/>	<g transform="translate(55.3,95.5)" stroke="none" fill="black" font-family="Arial" font-size="12.00"  text-anchor="end">
		<text><tspan font-family="Arial" > 10</tspan></text>
	</g>
</g>
<g fill="none" color="black" stroke="currentColor" stroke-width="1.00" stroke-linecap="butt" stroke-linejoin="miter">
	<path stroke='black'  d='M63.6,54.9 L72.6,54.9 M575.0,54.9 L566.0,54.9  '/>	<g transform="translate(55.3,58.8)" stroke="none" fill="black" font-family="Arial" font-size="12.00"  text-anchor="end">
		<text><tspan font-family="Arial" > 11</tspan></text>
	</g>
</g>
<g fill="none" color="black" stroke="currentColor" stroke-width="1.00" stroke-linecap="butt" stroke-linejoin="miter">
	<path stroke='black'  d='M63.6,18.1 L72.6,18.1 M575.0,18.1 L566.0,18.1  '/>	<g transform="translate(55.3,22.0)" stroke="none" fill="black" font-family="Arial" font-size="12.00"  text-anchor="end">
		<text><tspan font-family="Arial" > 12</tspan></text>
	</g>
</g>
<g fill="none" color="black" stroke="currentColor" stroke-width="1.00" stroke-linecap="butt" stroke-linejoin="miter">
	<path stroke='black'  d='M63.6,422.4 L63.6,413.4 M63.6,18.1 L63.6,27.1  '/>	<g transform="translate(63.6,444.3)" stroke="none" fill="black" font-family="Arial" font-size="12.00"  text-anchor="middle">
		<text><tspan font-family="Arial" > 1</tspan></text>
	</g>
</g>
<g fill="none" color="black" stroke="currentColor" stroke-width="1.00" stroke-linecap="butt" stroke-linejoin="miter">
	<path stroke='black'  d='M110.1,422.4 L110.1,413.4 M110.1,18.1 L110.1,27.1  '/>	<g transform="translate(110.1,444.3)" stroke="none" fill="black" font-family="Arial" font-size="12.00"  text-anchor="middle">
		<text><tspan font-family="Arial" > 2</tspan></text>
	</g>
</g>
<g fill="none" color="black" stroke="currentColor" stroke-width="1.00" stroke-linecap="butt" stroke-linejoin="miter">
	<path stroke='black'  d='M156.6,422.4 L156.6,413.4 M156.6,18.1 L156.6,27.1  '/>	<g transform="translate(156.6,444.3)" stroke="none" fill="black" font-family="Arial" font-size="12.00"  text-anchor="middle">
		<text><tspan font-family="Arial" > 3</tspan></text>
	</g>
</g>
<g fill="none" color="black" stroke="currentColor" stroke-width="1.00" stroke-linecap="butt" stroke-linejoin="miter">
	<path stroke='black'  d='M203.1,422.4 L203.1,413.4 M203.1,18.1 L203.1,27.1  '/>	<g transform="translate(203.1,444.3)" stroke="none" fill="black" font-family="Arial" font-size="12.00"  text-anchor="middle">
		<text><tspan font-family="Arial" > 4</tspan></text>
	</g>
</g>
<g fill="none" color="black" stroke="currentColor" stroke-width="1.00" stroke-linecap="butt" stroke-linejoin="miter">
	<path stroke='black'  d='M249.6,422.4 L249.6,413.4 M249.6,18.1 L249.6,27.1  '/>	<g transform="translate(249.6,444.3)" stroke="none" fill="black" font-family="Arial" font-size="12.00"  text-anchor="middle">
		<text><tspan font-family="Arial" > 5</tspan></text>
	</g>
</g>
<g fill="none" color="black" stroke="currentColor" stroke-width="1.00" stroke-linecap="butt" stroke-linejoin="miter">
	<path stroke='black'  d='M296.1,422.4 L296.1,413.4 M296.1,18.1 L296.1,27.1  '/>	<g transform="translate(296.1,444.3)" stroke="none" fill="black" font-family="Arial" font-size="12.00"  text-anchor="middle">
		<text><tspan font-family="Arial" > 6</tspan></text>
	</g>
</g>
<g fill="none" color="black" stroke="currentColor" stroke-width="1.00" stroke-linecap="butt" stroke-linejoin="miter">
	<path stroke='black'  d='M342.5,422.4 L342.5,413.4 M342.5,18.1 L342.5,27.1  '/>	<g transform="translate(342.5,444.3)" stroke="none" fill="black" font-family="Arial" font-size="12.00"  text-anchor="middle">
		<text><tspan font-family="Arial" > 7</tspan></text>
	</g>
</g>
<g fill="none" color="black" stroke="currentColor" stroke-width="1.00" stroke-linecap="butt" stroke-linejoin="miter">
	<path stroke='black'  d='M389.0,422.4 L389.0,413.4 M389.0,18.1 L389.0,27.1  '/>	<g transform="translate(389.0,444.3)" stroke="none" fill="black" font-family="Arial" font-size="12.00"  text-anchor="middle">
		<text><tspan font-family="Arial" > 8</tspan></text>
	</g>
</g>
<g fill="none" color="black" stroke="currentColor" stroke-width="1.00" stroke-linecap="butt" stroke-linejoin="miter">
	<path stroke='black'  d='M435.5,422.4 L435.5,413.4 M435.5,18.1 L435.5,27.1  '/>	<g transform="translate(435.5,444.3)" stroke="none" fill="black" font-family="Arial" font-size="12.00"  text-anchor="middle">
		<text><tspan font-family="Arial" > 9</tspan></text>
	</g>
</g>
<g fill="none" color="black" stroke="currentColor" stroke-width="1.00" stroke-linecap="butt" stroke-linejoin="miter">
	<path stroke='black'  d='M482.0,422.4 L482.0,413.4 M482.0,18.1 L482.0,27.1  '/>	<g transform="translate(482.0,444.3)" stroke="none" fill="black" font-family="Arial" font-size="12.00"  text-anchor="middle">
		<text><tspan font-family="Arial" > 10</tspan></text>
	</g>
</g>
<g fill="none" color="black" stroke="currentColor" stroke-width="1.00" stroke-linecap="butt" stroke-linejoin="miter">
	<path stroke='black'  d='M528.5,422.4 L528.5,413.4 M528.5,18.1 L528.5,27.1  '/>	<g transform="translate(528.5,444.3)" stroke="none" fill="black" font-family="Arial" font-size="12.00"  text-anchor="middle">
		<text><tspan font-family="Arial" > 11</tspan></text>
	</g>
</g>
<g fill="none" color="black" stroke="currentColor" stroke-width="1.00" stroke-linecap="butt" stroke-linejoin="miter">
	<path stroke='black'  d='M575.0,422.4 L575.0,413.4 M575.0,18.1 L575.0,27.1  '/>	<g transform="translate(575.0,444.3)" stroke="none" fill="black" font-family="Arial" font-size="12.00"  text-anchor="middle">
		<text><tspan font-family="Arial" > 12</tspan></text>
	</g>
</g>
<g fill="none" color="black" stroke="currentColor" stroke-width="1.00" stroke-linecap="butt" stroke-linejoin="miter">
</g>
<g fill="none" color="black" stroke="currentColor" stroke-width="1.00" stroke-linecap="butt" stroke-linejoin="miter">
	<path stroke='black'  d='M63.6,18.1 L63.6,422.4 L575.0,422.4 L575.0,18.1 L63.6,18.1 Z  '/></g>
<g fill="none" color="black" stroke="currentColor" stroke-width="1.00" stroke-linecap="butt" stroke-linejoin="miter">
	<g transform="translate(25.3,220.3) rotate(270)" stroke="none" fill="black" font-family="Arial" font-size="12.00"  text-anchor="middle">
		<text><tspan font-family="Arial" >Speedup</tspan></text>
	</g>
</g>
<g fill="none" color="black" stroke="currentColor" stroke-width="1.00" stroke-linecap="butt" stroke-linejoin="miter">
	<g transform="translate(319.3,471.3)" stroke="none" fill="black" font-family="Arial" font-size="12.00"  text-anchor="middle">
		<text><tspan font-family="Arial" >Anzahl Threads</tspan></text>
	</g>
</g>
<g fill="none" color="black" stroke="currentColor" stroke-width="1.00" stroke-linecap="butt" stroke-linejoin="miter">
</g>
	<g id="gnuplot_plot_1" ><title>Optimaler Speedup</title>
<g fill="none" color="black" stroke="currentColor" stroke-width="1.00" stroke-linecap="butt" stroke-linejoin="miter">
	<g transform="translate(213.0,40.0)" stroke="none" fill="black" font-family="Arial" font-size="12.00"  text-anchor="end">
		<text><tspan font-family="Arial" >Optimaler Speedup</tspan></text>
	</g>
</g>
<g fill="none" color="black" stroke="currentColor" stroke-width="1.00" stroke-linecap="butt" stroke-linejoin="miter">
	<path stroke='rgb(170, 170, 170)'  d='M221.3,36.1 L263.5,36.1 M63.6,422.4 L68.8,418.3 L73.9,414.2 L79.1,410.1 L84.3,406.1 L89.4,402.0
		L94.6,397.9 L99.8,393.8 L104.9,389.7 L110.1,385.6 L115.3,381.6 L120.4,377.5 L125.6,373.4 L130.8,369.3
		L135.9,365.2 L141.1,361.1 L146.3,357.1 L151.4,353.0 L156.6,348.9 L161.7,344.8 L166.9,340.7 L172.1,336.6
		L177.2,332.6 L182.4,328.5 L187.6,324.4 L192.7,320.3 L197.9,316.2 L203.1,312.1 L208.2,308.1 L213.4,304.0
		L218.6,299.9 L223.7,295.8 L228.9,291.7 L234.1,287.6 L239.2,283.5 L244.4,279.5 L249.6,275.4 L254.7,271.3
		L259.9,267.2 L265.1,263.1 L270.2,259.0 L275.4,255.0 L280.6,250.9 L285.7,246.8 L290.9,242.7 L296.1,238.6
		L301.2,234.5 L306.4,230.5 L311.6,226.4 L316.7,222.3 L321.9,218.2 L327.0,214.1 L332.2,210.0 L337.4,206.0
		L342.5,201.9 L347.7,197.8 L352.9,193.7 L358.0,189.6 L363.2,185.5 L368.4,181.5 L373.5,177.4 L378.7,173.3
		L383.9,169.2 L389.0,165.1 L394.2,161.0 L399.4,157.0 L404.5,152.9 L409.7,148.8 L414.9,144.7 L420.0,140.6
		L425.2,136.5 L430.4,132.4 L435.5,128.4 L440.7,124.3 L445.9,120.2 L451.0,116.1 L456.2,112.0 L461.4,107.9
		L466.5,103.9 L471.7,99.8 L476.9,95.7 L482.0,91.6 L487.2,87.5 L492.3,83.4 L497.5,79.4 L502.7,75.3
		L507.8,71.2 L513.0,67.1 L518.2,63.0 L523.3,58.9 L528.5,54.9 L533.7,50.8 L538.8,46.7 L544.0,42.6
		L549.2,38.5 L554.3,34.4 L559.5,30.4 L564.7,26.3 L569.8,22.2 L575.0,18.1  '/></g>
	</g>
	<g id="gnuplot_plot_2" ><title>Speedup</title>
<g fill="none" color="black" stroke="currentColor" stroke-width="1.00" stroke-linecap="butt" stroke-linejoin="miter">
	<g transform="translate(213.0,58.0)" stroke="none" fill="black" font-family="Arial" font-size="12.00"  text-anchor="end">
		<text><tspan font-family="Arial" >Speedup</tspan></text>
	</g>
</g>
<g fill="none" color="black" stroke="currentColor" stroke-width="1.00" stroke-linecap="butt" stroke-linejoin="miter">
	<path stroke='rgb(255,   0,   0)'  d='M221.3,54.1 L263.5,54.1 M63.6,422.4 L110.1,385.7 L156.6,349.9 L203.1,313.4 L249.6,277.3 L296.1,240.3
		L342.5,204.7 L389.0,169.4 L435.5,132.3 L482.0,96.8 L528.5,65.4 L575.0,37.0  '/>	<use xlink:href='#gpPt1' transform='translate(63.6,422.4) scale(4.50)' color='rgb(255,   0,   0)'/>
	<use xlink:href='#gpPt1' transform='translate(110.1,385.7) scale(4.50)' color='rgb(255,   0,   0)'/>
	<use xlink:href='#gpPt1' transform='translate(156.6,349.9) scale(4.50)' color='rgb(255,   0,   0)'/>
	<use xlink:href='#gpPt1' transform='translate(203.1,313.4) scale(4.50)' color='rgb(255,   0,   0)'/>
	<use xlink:href='#gpPt1' transform='translate(249.6,277.3) scale(4.50)' color='rgb(255,   0,   0)'/>
	<use xlink:href='#gpPt1' transform='translate(296.1,240.3) scale(4.50)' color='rgb(255,   0,   0)'/>
	<use xlink:href='#gpPt1' transform='translate(342.5,204.7) scale(4.50)' color='rgb(255,   0,   0)'/>
	<use xlink:href='#gpPt1' transform='translate(389.0,169.4) scale(4.50)' color='rgb(255,   0,   0)'/>
	<use xlink:href='#gpPt1' transform='translate(435.5,132.3) scale(4.50)' color='rgb(255,   0,   0)'/>
	<use xlink:href='#gpPt1' transform='translate(482.0,96.8) scale(4.50)' color='rgb(255,   0,   0)'/>
	<use xlink:href='#gpPt1' transform='translate(528.5,65.4) scale(4.50)' color='rgb(255,   0,   0)'/>
	<use xlink:href='#gpPt1' transform='translate(575.0,37.0) scale(4.50)' color='rgb(255,   0,   0)'/>
	<use xlink:href='#gpPt1' transform='translate(242.4,54.1) scale(4.50)' color='rgb(255,   0,   0)'/>
</g>
	</g>
	<g id="gnuplot_plot_3" ><title>Messungenauigkeit</title>
<g fill="none" color="black" stroke="currentColor" stroke-width="1.00" stroke-linecap="butt" stroke-linejoin="miter">
	<g transform="translate(213.0,76.0)" stroke="none" fill="black" font-family="Arial" font-size="12.00"  text-anchor="end">
		<text><tspan font-family="Arial" >Messungenauigkeit</tspan></text>
	</g>
</g>
<g fill="none" color="black" stroke="currentColor" stroke-width="1.00" stroke-linecap="butt" stroke-linejoin="miter">
	<path stroke='rgb( 34,  34,  34)'  d='M221.3,72.1 L263.5,72.1 M221.3,67.6 L221.3,76.6 M263.5,67.6 L263.5,76.6 M63.6,422.4 L68.1,422.4
		M63.6,422.4 L68.1,422.4 M110.1,385.7 M105.6,385.7 L114.6,385.7 M105.6,385.7 L114.6,385.7 M156.6,350.3
		L156.6,349.6 M152.1,350.3 L161.1,350.3 M152.1,349.6 L161.1,349.6 M203.1,313.5 L203.1,313.3 M198.6,313.5
		L207.6,313.5 M198.6,313.3 L207.6,313.3 M249.6,278.2 L249.6,276.8 M245.1,278.2 L254.1,278.2 M245.1,276.8
		L254.1,276.8 M296.1,240.5 L296.1,240.2 M291.6,240.5 L300.6,240.5 M291.6,240.2 L300.6,240.2 M342.5,206.2
		L342.5,203.8 M338.0,206.2 L347.0,206.2 M338.0,203.8 L347.0,203.8 M389.0,170.8 L389.0,168.5 M384.5,170.8
		L393.5,170.8 M384.5,168.5 L393.5,168.5 M435.5,132.9 L435.5,131.8 M431.0,132.9 L440.0,132.9 M431.0,131.8
		L440.0,131.8 M482.0,97.0 L482.0,96.5 M477.5,97.0 L486.5,97.0 M477.5,96.5 L486.5,96.5 M528.5,71.6
		L528.5,61.9 M524.0,71.6 L533.0,71.6 M524.0,61.9 L533.0,61.9 M575.0,41.3 L575.0,33.4 M570.5,41.3
		L575.0,41.3 M570.5,33.4 L575.0,33.4  '/>	<use xlink:href='#gpDot' x='242.4' y='72.1' color='rgb( 34,  34,  34)'/>

</g>
	</g>
<g fill="none" color="white" stroke="rgb( 34,  34,  34)" stroke-width="2.00" stroke-linecap="butt" stroke-linejoin="miter">
</g>
<g fill="none" color="black" stroke="currentColor" stroke-width="2.00" stroke-linecap="butt" stroke-linejoin="miter">
</g>
<g fill="none" color="black" stroke="black" stroke-width="1.00" stroke-linecap="butt" stroke-linejoin="miter">
</g>
<g fill="none" color="black" stroke="currentColor" stroke-width="1.00" stroke-linecap="butt" stroke-linejoin="miter">
	<path stroke='black'  d='M63.6,18.1 L63.6,422.4 L575.0,422.4 L575.0,18.1 L63.6,18.1 Z  '/></g>
<g fill="none" color="black" stroke="currentColor" stroke-width="1.00" stroke-linecap="butt" stroke-linejoin="miter">
</g>
</g>
</svg>

